Extra results and examples of code functionality
…
  # Using density:
  this_int_density_true <- create_intervals(this_sim,
                                           density = TRUE)

  ints_simulations_density_true <- rbind(ints_simulations_density_true,
                                        cbind(type = i,
                                              this_int_density_true$intervals))
}

ints_simulations_density_false <- tibble::as_tibble(ints_simulations_density_false)
ints_simulations_density_true <- tibble::as_tibble(ints_simulations_density_true)

ints_simulations_density_false
#> # A tibble: 1,001 × 25
#>    type       median eti_lower eti_upper hdi_lower hdi_upper width_eti width_hdi
#>    <chr>       <dbl>     <dbl>     <dbl>     <dbl>     <dbl>     <dbl>     <dbl>
#>  1 theoretic…   54.6      20.5      145.      14.3      127.      125.      112.
#>  2 1            54.1      19.8      149.      14.7      128.      129.      114.
#>  3 2            55.5      20.9      148.      13.9      127.      127.      113.
#>  4 3            54.4      20.3      147.      14.9      126.      126.      111.
#>  5 4            54.4      20.6      142.      15.3      125.      121.      110.
#>  6 5            54.4      20.1      150.      12.8      126.      130.      113.
#>  7 6            54.5      20.5      146.      15.6      129.      126.      113.
#>  8 7            54.8      20.7      151.      15.9      131.      130.      115.
#>  9 8            55.0      20.3      152.      13.0      127.      131.      114.
#> 10 9            55.0      20.7      144.      14.7      124.      123.      109.
#> # ℹ 991 more rows
#> # ℹ 17 more variables: width_diff <dbl>, a_lower <dbl>, b_lower <dbl>,
#> #   i_eti_lower <int>, y_eti_lower <dbl>, i_eti_upper <int>, y_eti_upper <dbl>,
#> #   i_hdi_lower <int>, y_hdi_lower <dbl>, i_hdi_upper <int>, y_hdi_upper <dbl>,
#> #   hdi_height <lgl>, integral_full <dbl>, integral_eti <dbl>,
#> #   integral_hdi <dbl>, warning <lgl>, allow_hdi_zero <lgl>
ints_simulations_density_true
#> # A tibble: 1,001 × 25
#>    type       median eti_lower eti_upper hdi_lower hdi_upper width_eti width_hdi
#>    <chr>       <dbl>     <dbl>     <dbl>     <dbl>     <dbl>     <dbl>     <dbl>
#>  1 theoretic…   54.6      20.5      145.      14.3      127.      125.      112.
#>  2 1            54.1      19.8      149.      11.9      129.      129.      117.
#>  3 2            55.5      20.9      148.      12.8      128.      127.      115.
#>  4 3            54.4      20.3      147.      12.7      127.      126.      114.
#>  5 4            54.4      20.6      142.      12.9      126.      121.      113.
#>  6 5            54.4      20.1      150.      11.5      128.      130.      117.
#>  7 6            54.5      20.5      146.      12.8      128.      126.      116.
#>  8 7            54.8      20.7      151.      12.8      131.      130.      118.
#>  9 8            55.0      20.3      152.      11.8      129.      131.      117.
#> 10 9            55.0      20.7      144.      13.2      126.      123.      113.
#> # ℹ 991 more rows
#> # ℹ 17 more variables: width_diff <dbl>, a_lower <dbl>, b_lower <dbl>,
#> #   i_eti_lower <int>, y_eti_lower <dbl>, i_eti_upper <int>, y_eti_upper <dbl>,
#> #   i_hdi_lower <int>, y_hdi_lower <dbl>, i_hdi_upper <int>, y_hdi_upper <dbl>,
#> #   hdi_height <dbl>, integral_full <dbl>, integral_eti <dbl>,
#> #   integral_hdi <dbl>, warning <lgl>, allow_hdi_zero <lgl>
…
