Results
…
for which definitions are given in the help file ?create_intervals.

MCMC samples for multiple years – recruitment for Figure 2A

We now present calculations for multiple data sets, in our case multiple years of MCMC samples of hake recruitment.

The values are saved in the package as the tibble hake_recruitment_mcmc, with each column corresponding to a year (with the first column representing the Virgin unfished equilibrium biomass) and each of the 8,000 rows representing an MCMC sample:

hake_recruitment_mcmc
#> # A tibble: 8,000 × 60
#>    Virgin `1966` `1967` `1968` `1969` `1970` `1971` `1972` `1973` `1974` `1975`
#>     <dbl>  <dbl>  <dbl>  <dbl>  <dbl>  <dbl>  <dbl>  <dbl>  <dbl>  <dbl>  <dbl>
#>  1   2.95   1.97  1.16    3.37  1.05    5.36  1.67   0.660   4.13  0.165   1.35
#>  2   3.64   4.73  1.09    4.29  1.57    6.83  0.991  1.01    4.55  0.533   1.60
#>  3   2.47   1.29  7.27    1.97  1.07    8.54  1.32   0.522   6.73  0.512   1.65
#>  4   3.01   2.82  6.69    4.29  1.59   11.3   1.00   1.05    8.23  1.18    1.80
#>  5   1.75   1.11  1.92    3.07  0.394   5.28  0.294  0.503   3.39  0.345   1.07
#>  6   3.90   2.13 12.5     1.69  2.81   13.3   1.47   0.775   9.15  0.326   3.05
#>  7   2.40   3.04  1.50    5.18  0.617   8.29  0.452  0.701   5.73  0.131   1.63
#>  8   1.64   3.06  0.877   2.71  0.267   4.51  0.233  0.344   3.84  0.307   1.30
#>  9   2.96   4.79  8.93    4.32  1.73   17.7   2.32   1.33   10.5   0.624   3.16
#> 10   3.02   1.02  1.50    3.45  0.696   5.52  1.35   0.529   3.94  0.431   1.30
#> # ℹ 7,990 more rows
#> # ℹ 49 more variables: `1976` <dbl>, `1977` <dbl>, `1978` <dbl>, `1979` <dbl>,
#> #   `1980` <dbl>, `1981` <dbl>, `1982` <dbl>, `1983` <dbl>, `1984` <dbl>,
#> #   `1985` <dbl>, `1986` <dbl>, `1987` <dbl>, `1988` <dbl>, `1989` <dbl>,
#> #   `1990` <dbl>, `1991` <dbl>, `1992` <dbl>, `1993` <dbl>, `1994` <dbl>,
#> #   `1995` <dbl>, `1996` <dbl>, `1997` <dbl>, `1998` <dbl>, `1999` <dbl>,
#> #   `2000` <dbl>, `2001` <dbl>, `2002` <dbl>, `2003` <dbl>, `2004` <dbl>, …
…
For convenience, the intervals for all years are saved in a single tibble:

res_all_years$intervals_all
#> # A tibble: 59 × 25
#>    quantity median eti_lower eti_upper hdi_lower hdi_upper width_eti width_hdi
#>       <dbl>  <dbl>     <dbl>     <dbl>     <dbl>     <dbl>     <dbl>     <dbl>
#>  1     1966  1.63     0.0571     10.7    0.00613      8.43     10.6       8.43
#>  2     1967  4.65     0.214      14.9    0.00677     12.5      14.7      12.5 
#>  3     1968  3.13     0.209      10.3    0.0226       8.38     10.1       8.36
#>  4     1969  0.717    0.0394      4.07   0.00515      3.21      4.03      3.20
#>  5     1970  9.39     4.72       22.8    3.97        20.0      18.1      16.1 
#>  6     1971  0.860    0.0833      3.16   0.0135       2.59      3.08      2.57
#>  7     1972  0.554    0.0670      1.97   0.0138       1.65      1.90      1.63
#>  8     1973  6.28     3.24       14.7    2.52        12.8      11.5      10.3 
#>  9     1974  0.353    0.0367      1.42   0.00697      1.15      1.39      1.14
#> 10     1975  1.95     0.934       4.57   0.711        4.06      3.64      3.35
#> # ℹ 49 more rows
#> # ℹ 17 more variables: width_diff <dbl>, a_lower <dbl>, b_lower <dbl>,
#> #   i_eti_lower <int>, y_eti_lower <dbl>, i_eti_upper <int>, y_eti_upper <dbl>,
#> #   i_hdi_lower <int>, y_hdi_lower <dbl>, i_hdi_upper <int>, y_hdi_upper <dbl>,
#> #   hdi_height <lgl>, integral_full <dbl>, integral_eti <dbl>,
#> #   integral_hdi <dbl>, warning <lgl>, allow_hdi_zero <lgl>
…
MCMC samples for multiple years – relative spawning biomass for Figure 2B

We now use the same approach for the relative spawning biomass calculations shown in Figure 2B.

The female spawning biomass is the estimated total biomass of all females in the population that are mature (for context, roughly half of age-2 females are considered mature). The relative spawning biomass is the females spawning biomass divided by that for the unfished equilibrium state (the calculation is already done for each MCMC sample and then the ratios saved).

The values are saved in the package as a tibble hake_relative_biomass_mcmc with years as column headings, and also includes forecasts made assuming constant catches in 2024, 2025, and 2026 of 350,000 t, which is close to the average coastwide catch from 2014-2023. Values correspond to the relative spawning biomass at the start of the corresponding year (before any fishing).

We can use similar code to above (since the values are in a tibble):

res_all_years_2 <- create_intervals(hake_relative_biomass_mcmc)

res_all_years_2$intervals_all
#> # A tibble: 61 × 25
#>    quantity median eti_lower eti_upper hdi_lower hdi_upper width_eti width_hdi
#>       <dbl>  <dbl>     <dbl>     <dbl>     <dbl>     <dbl>     <dbl>     <dbl>
#>  1     1967  0.508     0.297     0.897     0.265     0.842     0.600     0.576
#>  2     1968  0.511     0.299     0.918     0.267     0.858     0.619     0.591
#>  3     1969  0.578     0.340     1.05      0.315     0.987     0.708     0.672
#>  4     1970  0.664     0.387     1.22      0.346     1.13      0.835     0.782
#>  5     1971  0.687     0.395     1.27      0.349     1.16      0.871     0.816
#>  6     1972  0.772     0.443     1.43      0.388     1.31      0.988     0.917
#>  7     1973  0.925     0.526     1.70      0.478     1.58      1.18      1.11 
#>  8     1974  0.904     0.515     1.65      0.457     1.53      1.13      1.07 
#>  9     1975  1.12      0.631     2.05      0.561     1.90      1.41      1.34 
#> 10     1976  1.27      0.718     2.32      0.638     2.14      1.60      1.50 
#> # ℹ 51 more rows
#> # ℹ 17 more variables: width_diff <dbl>, a_lower <dbl>, b_lower <dbl>,
#> #   i_eti_lower <int>, y_eti_lower <dbl>, i_eti_upper <int>, y_eti_upper <dbl>,
#> #   i_hdi_lower <int>, y_hdi_lower <dbl>, i_hdi_upper <int>, y_hdi_upper <dbl>,
#> #   hdi_height <lgl>, integral_full <dbl>, integral_eti <dbl>,
#> #   integral_hdi <dbl>, warning <lgl>, allow_hdi_zero <lgl>
…
